{
    "KPlugin": {
        "Authors": [
            {
                "Name": "Joshua Goins",
                "Name[ca@valencia]": "Joshua Goins",
                "Name[ca]": "Joshua Goins",
                "Name[cs]": "Joshua Goins",
                "Name[de]": "Joshua Goins",
                "Name[eo]": "Joshua Goins",
                "Name[es]": "Joshua Goins",
                "Name[eu]": "Joshua Goins",
                "Name[fi]": "Joshua Goins",
                "Name[fr]": "Joshua Goins",
                "Name[gl]": "Joshua Goins",
                "Name[ia]": "Joshua Goins",
                "Name[it]": "Joshua Goins",
                "Name[ka]": "Joshua Goins",
                "Name[ko]": "Joshua Goins",
                "Name[nl]": "Joshua Goins",
                "Name[pl]": "Joshua Goins",
                "Name[ru]": "Joshua Goins",
                "Name[sk]": "Joshua Goins",
                "Name[sl]": "Joshua Goins",
                "Name[sv]": "Joshua Goins",
                "Name[tr]": "Joshua Goins",
                "Name[uk]": "Joshua Goins",
                "Name[x-test]": "xxJoshua Goinsxx",
                "Name[zh_TW]": "Joshua Goins"
            }
        ],
        "Category": "Utilities",
        "Description": "Share via Tokodon",
        "Description[ca@valencia]": "Compartix a través de Tokodon",
        "Description[ca]": "Comparteix a través del Tokodon",
        "Description[cs]": "Sdílet přes Tokodon",
        "Description[de]": "Über Tokodon teilen",
        "Description[eo]": "Kundividu per Tokodon",
        "Description[es]": "Compartir mediante Tokodon",
        "Description[eu]": "Partekatu Tokodon bidez",
        "Description[fi]": "Jaa Tokodonilla",
        "Description[fr]": "Partager avec Tokodon",
        "Description[gl]": "Compartir por Tokodon.",
        "Description[ia]": "Comparti via Tokodon",
        "Description[it]": "Condividi tramite Tokodon",
        "Description[ka]": "Tokodon-ით გაზიარება",
        "Description[ko]": "Tokodon으로 공유",
        "Description[nl]": "Delen via Tokodon",
        "Description[pl]": "Udostępnij w Tokodon",
        "Description[ru]": "Опубликовать в Tokodon",
        "Description[sk]": "Zdieľať cez Tokodon",
        "Description[sl]": "Deli prek Tokodona",
        "Description[sv]": "Dela via Tokodon",
        "Description[tr]": "Tokodon ile Paylaş",
        "Description[uk]": "Оприлюднити у Tokodon",
        "Description[x-test]": "xxShare via Tokodonxx",
        "Description[zh_TW]": "透過 Tokodon 分享",
        "Icon": "org.kde.tokodon",
        "License": "GPL",
        "Name": "Tokodon",
        "Name[ast]": "Tokodon",
        "Name[ca@valencia]": "Tokodon",
        "Name[ca]": "Tokodon",
        "Name[cs]": "Tokodon",
        "Name[de]": "Tokodon",
        "Name[eo]": "Tokodon",
        "Name[es]": "Tokodon",
        "Name[eu]": "Tokodon",
        "Name[fi]": "Tokodon",
        "Name[fr]": "Tokodon",
        "Name[gl]": "Tokodon",
        "Name[ia]": "Tokodon",
        "Name[it]": "Tokodon",
        "Name[ka]": "Tokodon",
        "Name[ko]": "Tokodon",
        "Name[nl]": "Tokodon",
        "Name[pl]": "Tokodon",
        "Name[ru]": "Tokodon",
        "Name[sk]": "Tokodon",
        "Name[sl]": "Tokodon",
        "Name[sv]": "Tokodon",
        "Name[tr]": "Tokodon",
        "Name[uk]": "Tokodon",
        "Name[x-test]": "xxTokodonxx",
        "Name[zh_TW]": "Tokodon",
        "X-Purpose-ActionDisplay": "Tokodon"
    },
    "X-Purpose-PluginTypes": [
        "ShareUrl"
    ]
}
